med/TEST/test0.csv

X,CH1,Start,Increment,Sequence,VOLT,-1.00E-3,2.00E-6
0,0.00E+0
1,1.49E-1
2,0.00E+0
3,2.23E-1
4,1.49E-1
5,3.72E-1
6,2.23E-1
7,5.21E-1
8,3.72E-1
9,5.95E-1
10,5.21E-1
11,7.44E-1
12,5.95E-1
13,8.18E-1
14,7.44E-1
15,9.67E-1
16,8.18E-1
17,1.12E+0
18,9.67E-1
19,1.19E+0
20,1.04E+0
21,1.34E+0
22,1.19E+0
23,1.49E+0
24,1.34E+0
25,1.64E+0
26,1.49E+0
27,1.71E+0
28,1.56E+0
29,1.78E+0
30,1.71E+0
31,1.93E+0
32,1.78E+0
33,2.08E+0
34,1.93E+0
35,2.16E+0
36,2.01E+0
37,2.31E+0
38,2.16E+0
39,2.38E+0
40,2.23E+0
41,2.53E+0
42,2.38E+0
43,2.60E+0
44,2.45E+0
45,2.75E+0
46,2.60E+0
47,2.83E+0
48,2.68E+0
49,2.90E+0
50,2.75E+0
51,3.05E+0
52,2.90E+0
53,3.12E+0
54,3.05E+0
55,3.20E+0
56,3.12E+0
57,3.35E+0
58,3.20E+0
59,3.42E+0
60,3.27E+0
61,3.50E+0
62,3.35E+0
63,3.57E+0
64,3.42E+0
65,3.72E+0
66,3.57E+0
67,3.79E+0
68,3.64E+0
69,3.87E+0
70,3.72E+0
71,3.94E+0
72,3.79E+0
73,4.02E+0
74,3.87E+0
75,4.09E+0
76,3.94E+0
77,4.16E+0
78,4.02E+0
79,4.24E+0
80,4.09E+0
81,4.24E+0
82,4.09E+0
83,4.39E+0
84,4.16E+0
85,4.39E+0
86,4.46E+0
87,4.24E+0
88,4.54E+0
89,4.31E+0
90,4.39E+0
91,4.61E+0
92,4.46E+0
93,4.61E+0
94,4.54E+0
95,4.69E+0
96,4.54E+0
97,4.76E+0
98,4.61E+0
99,4.76E+0
100,4.61E+0
101,4.83E+0
102,4.69E+0
103,4.83E+0
104,4.69E+0
105,4.91E+0
106,4.76E+0
107,4.91E+0
108,4.76E+0
109,4.98E+0
110,4.76E+0
111,4.98E+0
112,4.98E+0
113,4.83E+0
114,4.83E+0
115,5.06E+0
116,4.83E+0
117,5.06E+0
118,4.91E+0
119,5.06E+0
120,4.91E+0
121,5.13E+0
122,4.91E+0
123,5.13E+0
124,4.91E+0
125,5.13E+0
126,5.13E+0
127,4.91E+0
128,4.91E+0
129,5.13E+0
130,5.13E+0
131,4.91E+0
132,5.13E+0
133,4.91E+0
134,5.13E+0
135,4.91E+0
136,4.91E+0
137,5.13E+0
138,5.06E+0
139,4.91E+0
140,4.91E+0
141,5.06E+0
142,5.06E+0
143,4.83E+0
144,4.98E+0
145,4.83E+0
146,4.98E+0
147,4.76E+0
148,4.98E+0
149,4.76E+0
150,4.91E+0
151,4.69E+0
152,4.83E+0
153,4.69E+0
154,4.69E+0
155,4.83E+0
156,4.61E+0
157,4.83E+0
158,4.61E+0
159,4.76E+0
160,4.69E+0
161,4.54E+0
162,4.69E+0
163,4.46E+0
164,4.61E+0
165,4.39E+0
166,4.54E+0
167,4.31E+0
168,4.46E+0
169,4.31E+0
170,4.46E+0
171,4.24E+0
172,4.39E+0
173,4.16E+0
174,4.31E+0
175,4.09E+0
176,4.24E+0
177,4.02E+0
178,4.16E+0
179,3.94E+0
180,4.09E+0
181,3.87E+0
182,4.02E+0
183,3.79E+0
184,3.94E+0
185,3.72E+0
186,3.87E+0
187,3.64E+0
188,3.79E+0
189,3.57E+0
190,3.72E+0
191,3.50E+0
192,3.64E+0
193,3.42E+0
194,3.57E+0
195,3.27E+0
196,3.42E+0
197,3.20E+0
198,3.35E+0
199,3.12E+0
200,3.27E+0
201,3.05E+0
202,3.12E+0
203,2.90E+0
204,3.12E+0
205,2.83E+0
206,2.97E+0
207,2.75E+0
208,2.83E+0
209,2.60E+0
210,2.75E+0
211,2.53E+0
212,2.68E+0
213,2.38E+0
214,2.53E+0
215,2.31E+0
216,2.45E+0
217,2.23E+0
218,2.31E+0
219,2.08E+0
220,2.23E+0
221,1.93E+0
222,2.08E+0
223,1.86E+0
224,2.01E+0
225,1.71E+0
226,1.86E+0
227,1.64E+0
228,1.78E+0
229,1.49E+0
230,1.64E+0
231,1.41E+0
232,1.56E+0
233,1.26E+0
234,1.41E+0
235,1.19E+0
236,1.26E+0
237,1.04E+0
238,1.19E+0
239,9.67E-1
240,1.04E+0
241,8.18E-1
242,9.67E-1
243,6.69E-1
244,8.18E-1
245,5.21E-1
246,6.69E-1
247,4.46E-1
248,5.95E-1
249,2.97E-1
250,4.46E-1
251,1.49E-1
252,2.97E-1
253,0.00E+0
254,1.49E-1
255,-7.44E-2
256,7.44E-2
257,-1.49E-1
258,-7.44E-2
259,-2.97E-1
260,-1.49E-1
261,-4.46E-1
262,-2.97E-1
263,-5.95E-1
264,-4.46E-1
265,-6.69E-1
266,-5.95E-1
267,-8.18E-1
268,-6.69E-1
269,-8.92E-1
270,-8.18E-1
271,-1.04E+0
272,-8.92E-1
273,-1.19E+0
274,-1.04E+0
275,-1.26E+0
276,-1.12E+0
277,-1.41E+0
278,-1.26E+0
279,-1.49E+0
280,-1.41E+0
281,-1.64E+0
282,-1.56E+0
283,-1.78E+0
284,-1.64E+0
285,-1.86E+0
286,-1.71E+0
287,-2.01E+0
288,-1.86E+0
289,-2.08E+0
290,-1.93E+0
291,-2.23E+0
292,-2.08E+0
293,-2.31E+0
294,-2.16E+0
295,-2.38E+0
296,-2.31E+0
297,-2.53E+0
298,-2.38E+0
299,-2.68E+0
300,-2.53E+0
301,-2.75E+0
302,-2.60E+0
303,-2.83E+0
304,-2.75E+0
305,-2.97E+0
306,-2.83E+0
307,-3.05E+0
308,-2.90E+0
309,-3.12E+0
310,-2.97E+0
311,-3.27E+0
312,-3.05E+0
313,-3.35E+0
314,-3.20E+0
315,-3.42E+0
316,-3.27E+0
317,-3.50E+0
318,-3.35E+0
319,-3.57E+0
320,-3.42E+0
321,-3.64E+0
322,-3.50E+0
323,-3.72E+0
324,-3.57E+0
325,-3.87E+0
326,-3.64E+0
327,-3.87E+0
328,-3.72E+0
329,-3.94E+0
330,-3.79E+0
331,-4.02E+0
332,-3.87E+0
333,-4.09E+0
334,-3.94E+0
335,-4.16E+0
336,-4.02E+0
337,-4.16E+0
338,-4.02E+0
339,-4.24E+0
340,-4.09E+0
341,-4.31E+0
342,-4.16E+0
343,-4.39E+0
344,-4.16E+0
345,-4.39E+0
346,-4.46E+0
347,-4.24E+0
348,-4.31E+0
349,-4.54E+0
350,-4.39E+0
351,-4.54E+0
352,-4.39E+0
353,-4.61E+0
354,-4.46E+0
355,-4.69E+0
356,-4.69E+0
357,-4.46E+0
358,-4.54E+0
359,-4.69E+0
360,-4.69E+0
361,-4.54E+0
362,-4.69E+0
363,-4.54E+0
364,-4.76E+0
365,-4.54E+0
366,-4.61E+0
367,-4.76E+0
368,-4.76E+0
369,-4.61E+0
370,-4.61E+0
371,-4.83E+0
372,-4.61E+0
373,-4.83E+0
374,-4.61E+0
375,-4.83E+0
376,-4.69E+0
377,-4.83E+0
378,-4.83E+0
379,-4.69E+0
380,-4.83E+0
381,-4.61E+0
382,-4.69E+0
383,-4.83E+0
384,-4.83E+0
385,-4.61E+0
386,-4.76E+0
387,-4.61E+0
388,-4.76E+0
389,-4.61E+0
390,-4.76E+0
391,-4.61E+0
392,-4.76E+0
393,-4.54E+0
394,-4.69E+0
395,-4.54E+0
396,-4.69E+0
397,-4.46E+0
398,-4.54E+0
399,-4.69E+0
400,-4.69E+0
401,-4.46E+0
402,-4.46E+0
403,-4.61E+0
404,-4.54E+0
405,-4.39E+0
406,-4.54E+0
407,-4.31E+0
408,-4.46E+0
409,-4.31E+0
410,-4.46E+0
411,-4.24E+0
412,-4.46E+0
413,-4.16E+0
414,-4.31E+0
415,-4.16E+0
416,-4.24E+0
417,-4.02E+0
418,-4.16E+0
419,-4.02E+0
420,-4.16E+0
421,-3.94E+0
422,-4.09E+0
423,-3.87E+0
424,-4.02E+0
425,-3.79E+0
426,-3.94E+0
427,-3.72E+0
428,-3.87E+0
429,-3.64E+0
430,-3.79E+0
431,-3.57E+0
432,-3.72E+0
433,-3.50E+0
434,-3.64E+0
435,-3.42E+0
436,-3.57E+0
437,-3.35E+0
438,-3.50E+0
439,-3.27E+0
440,-3.42E+0
441,-3.20E+0
442,-3.35E+0
443,-3.12E+0
444,-3.27E+0
445,-3.05E+0
446,-3.20E+0
447,-2.97E+0
448,-3.12E+0
449,-2.83E+0
450,-2.97E+0
451,-2.75E+0
452,-2.90E+0
453,-2.68E+0
454,-2.75E+0
455,-2.53E+0
456,-2.68E+0
457,-2.45E+0
458,-2.60E+0
459,-2.31E+0
460,-2.45E+0
461,-2.23E+0
462,-2.38E+0
463,-2.08E+0
464,-2.23E+0
465,-2.01E+0
466,-2.16E+0
467,-1.93E+0
468,-2.08E+0
469,-1.78E+0
470,-1.93E+0
471,-1.64E+0
472,-1.78E+0
473,-1.56E+0
474,-1.71E+0
475,-1.49E+0
476,-1.56E+0
477,-1.34E+0
478,-1.49E+0
479,-1.19E+0
480,-1.34E+0
481,-1.12E+0
482,-1.19E+0
483,-9.67E-1
484,-1.12E+0
485,-8.92E-1
486,-9.67E-1
487,-7.44E-1
488,-8.18E-1
489,-5.95E-1
490,-7.44E-1
491,-4.46E-1
492,-5.95E-1
493,-3.72E-1
494,-5.21E-1
495,-2.23E-1
496,-3.72E-1
497,-7.44E-2
498,-2.23E-1
499,0.00E+0
500,-7.44E-2
501,1.49E-1
502,0.00E+0
503,2.23E-1
504,1.49E-1
505,3.72E-1
506,2.23E-1
507,4.46E-1
508,3.72E-1
509,5.95E-1
510,5.21E-1
511,7.44E-1
512,5.95E-1
513,8.92E-1
514,7.44E-1
515,1.04E+0
516,8.92E-1
517,1.12E+0
518,9.67E-1
519,1.26E+0
520,1.12E+0
521,1.34E+0
522,1.26E+0
523,1.49E+0
524,1.34E+0
525,1.56E+0
526,1.49E+0
527,1.71E+0
528,1.56E+0
529,1.78E+0
530,1.71E+0
531,1.93E+0
532,1.78E+0
533,2.08E+0
534,1.93E+0
535,2.16E+0
536,2.08E+0
537,2.31E+0
538,2.16E+0
539,2.45E+0
540,2.31E+0
541,2.53E+0
542,2.38E+0
543,2.60E+0
544,2.45E+0
545,2.68E+0
546,2.60E+0
547,2.83E+0
548,2.68E+0
549,2.97E+0
550,2.83E+0
551,3.05E+0
552,2.90E+0
553,3.12E+0
554,2.97E+0
555,3.27E+0
556,3.12E+0
557,3.27E+0
558,3.20E+0
559,3.42E+0
560,3.27E+0
561,3.50E+0
562,3.35E+0
563,3.57E+0
564,3.42E+0
565,3.64E+0
566,3.50E+0
567,3.79E+0
568,3.64E+0
569,3.87E+0
570,3.72E+0
571,3.94E+0
572,3.79E+0
573,4.02E+0
574,3.87E+0
575,4.09E+0
576,3.94E+0
577,4.16E+0
578,4.02E+0
579,4.24E+0
580,4.09E+0
581,4.31E+0
582,4.16E+0
583,4.39E+0
584,4.24E+0
585,4.46E+0
586,4.24E+0
587,4.46E+0
588,4.39E+0
589,4.61E+0
590,4.39E+0
591,4.61E+0
592,4.46E+0
593,4.69E+0
594,4.54E+0
595,4.69E+0
596,4.54E+0
597,4.76E+0
598,4.61E+0
599,4.76E+0
600,4.69E+0
601,4.83E+0
602,4.83E+0
603,4.69E+0
604,4.69E+0
605,4.91E+0
606,4.76E+0
607,4.91E+0
608,4.76E+0
609,4.98E+0
610,4.98E+0
611,4.83E+0
612,4.83E+0
613,5.06E+0
614,4.91E+0
615,5.06E+0
616,4.91E+0
617,5.06E+0
618,4.91E+0
619,5.13E+0
620,5.13E+0
621,4.91E+0
622,4.91E+0
623,5.13E+0
624,4.98E+0
625,5.13E+0
626,4.98E+0
627,5.13E+0
628,4.98E+0
629,5.13E+0
630,4.98E+0
631,5.13E+0
632,4.98E+0
633,5.13E+0
634,5.13E+0
635,4.91E+0
636,5.06E+0
637,4.91E+0
638,5.06E+0
639,4.83E+0
640,5.06E+0
641,4.83E+0
642,4.83E+0
643,5.06E+0
644,4.98E+0
645,4.83E+0
646,4.83E+0
647,4.98E+0
648,4.91E+0
649,4.76E+0
650,4.76E+0
651,4.91E+0
652,4.83E+0
653,4.69E+0
654,4.69E+0
655,4.83E+0
656,4.61E+0
657,4.83E+0
658,4.76E+0
659,4.61E+0
660,4.76E+0
661,4.54E+0
662,4.69E+0
663,4.46E+0
664,4.61E+0
665,4.39E+0
666,4.54E+0
667,4.39E+0
668,4.54E+0
669,4.31E+0
670,4.46E+0
671,4.24E+0
672,4.39E+0
673,4.16E+0
674,4.31E+0
675,4.09E+0
676,4.24E+0
677,4.02E+0
678,4.16E+0
679,3.94E+0
680,4.09E+0
681,3.87E+0
682,4.02E+0
683,3.79E+0
684,3.94E+0
685,3.72E+0
686,3.87E+0
687,3.64E+0
688,3.79E+0
689,3.57E+0
690,3.72E+0
691,3.42E+0
692,3.42E+0
693,3.64E+0
694,3.50E+0
695,3.35E+0
696,3.42E+0
697,3.20E+0
698,3.35E+0
699,3.12E+0
700,3.27E+0
701,3.05E+0
702,3.12E+0
703,2.90E+0
704,3.05E+0
705,2.83E+0
706,2.97E+0
707,2.75E+0
708,2.83E+0
709,2.60E+0
710,2.75E+0
711,2.53E+0
712,2.68E+0
713,2.38E+0
714,2.53E+0
715,2.31E+0
716,2.45E+0
717,2.16E+0
718,2.31E+0
719,2.08E+0
720,2.23E+0
721,1.93E+0
722,2.08E+0
723,1.86E+0
724,2.01E+0
725,1.71E+0
726,1.86E+0
727,1.64E+0
728,1.71E+0
729,1.49E+0
730,1.64E+0
731,1.41E+0
732,1.49E+0
733,1.26E+0
734,1.41E+0
735,1.12E+0
736,1.26E+0
737,1.04E+0
738,1.19E+0
739,8.92E-1
740,1.04E+0
741,7.44E-1
742,8.92E-1
743,6.69E-1
744,8.18E-1
745,5.21E-1
746,6.69E-1
747,4.46E-1
748,5.95E-1
749,2.97E-1
750,4.46E-1
751,1.49E-1
752,2.97E-1
753,7.44E-2
754,2.23E-1
755,-7.44E-2
756,7.44E-2
757,-1.49E-1
758,-7.44E-2
759,-2.97E-1
760,-2.23E-1
761,-4.46E-1
762,-2.97E-1
763,-5.95E-1
764,-4.46E-1
765,-6.69E-1
766,-5.95E-1
767,-8.18E-1
768,-6.69E-1
769,-8.92E-1
770,-8.18E-1
771,-1.04E+0
772,-8.92E-1
773,-1.19E+0
774,-1.04E+0
775,-1.34E+0
776,-1.19E+0
777,-1.41E+0
778,-1.26E+0
779,-1.56E+0
780,-1.41E+0
781,-1.64E+0
782,-1.49E+0
783,-1.71E+0
784,-1.64E+0
785,-1.86E+0
786,-1.71E+0
787,-1.93E+0
788,-1.78E+0
789,-2.08E+0
790,-1.93E+0
791,-2.23E+0
792,-2.08E+0
793,-2.31E+0
794,-2.16E+0
795,-2.38E+0
796,-2.31E+0
797,-2.53E+0
798,-2.38E+0
799,-2.60E+0
800,-2.45E+0
801,-2.68E+0
802,-2.53E+0
803,-2.83E+0
804,-2.68E+0
805,-2.90E+0
806,-2.75E+0
807,-2.97E+0
808,-2.90E+0
809,-3.12E+0
810,-2.97E+0
811,-3.20E+0
812,-3.05E+0
813,-3.27E+0
814,-3.12E+0
815,-3.42E+0
816,-3.20E+0
817,-3.42E+0
818,-3.35E+0
819,-3.57E+0
820,-3.42E+0
821,-3.64E+0
822,-3.50E+0
823,-3.72E+0
824,-3.57E+0
825,-3.79E+0
826,-3.64E+0
827,-3.87E+0
828,-3.72E+0
829,-3.94E+0
830,-3.79E+0
831,-4.02E+0
832,-3.87E+0
833,-4.09E+0
834,-3.94E+0
835,-4.16E+0
836,-4.02E+0
837,-4.24E+0
838,-4.09E+0
839,-4.24E+0
840,-4.09E+0
841,-4.31E+0
842,-4.16E+0
843,-4.39E+0
844,-4.24E+0
845,-4.46E+0
846,-4.31E+0
847,-4.46E+0
848,-4.31E+0
849,-4.54E+0
850,-4.39E+0
851,-4.54E+0
852,-4.39E+0
853,-4.61E+0
854,-4.61E+0
855,-4.39E+0
856,-4.46E+0
857,-4.69E+0
858,-4.46E+0
859,-4.69E+0
860,-4.54E+0
861,-4.69E+0
862,-4.54E+0
863,-4.76E+0
864,-4.61E+0
865,-4.76E+0
866,-4.61E+0
867,-4.76E+0
868,-4.83E+0
869,-4.61E+0
870,-4.83E+0
871,-4.61E+0
872,-4.69E+0
873,-4.83E+0
874,-4.69E+0
875,-4.83E+0
876,-4.69E+0
877,-4.83E+0
878,-4.83E+0
879,-4.69E+0
880,-4.69E+0
881,-4.83E+0
882,-4.83E+0
883,-4.69E+0
884,-4.83E+0
885,-4.61E+0
886,-4.83E+0
887,-4.61E+0
888,-4.76E+0
889,-4.61E+0
890,-4.76E+0
891,-4.61E+0
892,-4.61E+0
893,-4.76E+0
894,-4.76E+0
895,-4.54E+0
896,-4.69E+0
897,-4.54E+0
898,-4.69E+0
899,-4.46E+0
900,-4.46E+0
901,-4.69E+0
902,-4.61E+0
903,-4.39E+0
904,-4.54E+0
905,-4.39E+0
906,-4.54E+0
907,-4.31E+0
908,-4.46E+0
909,-4.31E+0
910,-4.46E+0
911,-4.24E+0
912,-4.39E+0
913,-4.16E+0
914,-4.39E+0
915,-4.09E+0
916,-4.24E+0
917,-4.09E+0
918,-4.24E+0
919,-4.02E+0
920,-4.16E+0
921,-3.94E+0
922,-4.09E+0
923,-3.94E+0
924,-4.09E+0
925,-3.79E+0
926,-4.02E+0
927,-3.79E+0
928,-3.94E+0
929,-3.72E+0
930,-3.79E+0
931,-3.64E+0
932,-3.72E+0
933,-3.57E+0
934,-3.72E+0
935,-3.50E+0
936,-3.64E+0
937,-3.42E+0
938,-3.50E+0
939,-3.27E+0
940,-3.42E+0
941,-3.20E+0
942,-3.35E+0
943,-3.12E+0
944,-3.27E+0
945,-3.05E+0
946,-3.20E+0
947,-2.97E+0
948,-3.05E+0
949,-2.83E+0
950,-2.97E+0
951,-2.75E+0
952,-2.90E+0
953,-2.60E+0
954,-2.75E+0
955,-2.53E+0
956,-2.68E+0
957,-2.45E+0
958,-2.60E+0
959,-2.31E+0
960,-2.45E+0
961,-2.23E+0
962,-2.38E+0
963,-2.16E+0
964,-2.23E+0
965,-2.01E+0
966,-2.16E+0
967,-1.93E+0
968,-2.01E+0
969,-1.78E+0
970,-1.93E+0
971,-1.64E+0
972,-1.78E+0
973,-1.56E+0
974,-1.64E+0
975,-1.41E+0
976,-1.56E+0
977,-1.34E+0
978,-1.49E+0
979,-1.19E+0
980,-1.34E+0
981,-1.12E+0
982,-1.19E+0
983,-9.67E-1
984,-1.12E+0
985,-8.18E-1
986,-9.67E-1
987,-7.44E-1
988,-8.92E-1
989,-5.95E-1
990,-7.44E-1
991,-5.21E-1
992,-5.95E-1
993,-3.72E-1
994,-5.21E-1
995,-2.23E-1
996,-3.72E-1
997,-1.49E-1
998,-2.23E-1
999,0.00E+0
